\relax 
\@writefile{toc}{\contentsline {section}{\numberline {0}Testing Environment}{1}\protected@file@percent }
\@writefile{toc}{\contentsline {section}{\numberline {1}Understanding the methods}{1}\protected@file@percent }
\@writefile{toc}{\contentsline {subsection}{\numberline {1.1}}{1}\protected@file@percent }
\@writefile{toc}{\contentsline {subsection}{\numberline {1.2}}{1}\protected@file@percent }
\@writefile{toc}{\contentsline {section}{\numberline {2}The Effects of Ties}{2}\protected@file@percent }
\@writefile{toc}{\contentsline {section}{\numberline {3}Forward vs. Backward}{3}\protected@file@percent }
\@writefile{toc}{\contentsline {section}{\numberline {4}Heuristics in the Adaptive A*}{4}\protected@file@percent }
\@writefile{toc}{\contentsline {section}{\numberline {5}Heuristics in the Adaptive A*}{5}\protected@file@percent }
\@writefile{toc}{\contentsline {section}{\numberline {6}Memory Issues}{6}\protected@file@percent }
