4265
3681
646
972
9615
551
4566
1377
5895
6582
11424
117
6248
102
1723
2004
184
2876
553
3098
937
6209
3657
6271
4204
1759
7963
1365
14523
835
757
3556
6463
7927
286
7681
1354
1611
1028
26505
5244
5097
848
3037
216
2576
178
152
851
561
